<svg width="40" height="40" viewBox="0 0 40 40" fill="none" xmlns="http://www.w3.org/2000/svg">
<rect width="40" height="40" rx="5" fill="#F3F3F3"/>
<path d="M22 24L7 24" stroke="#949494" stroke-width="1.5" stroke-linecap="round" stroke-linejoin="round"/>
<path d="M33 24L28 24" stroke="#949494" stroke-width="1.5" stroke-linecap="round" stroke-linejoin="round"/>
<circle cx="25" cy="24" r="3" transform="rotate(-180 25 24)" stroke="#949494" stroke-width="1.5"/>
<path d="M18 16L33 16" stroke="#949494" stroke-width="1.5" stroke-linecap="round" stroke-linejoin="round"/>
<path d="M7 16L12 16" stroke="#949494" stroke-width="1.5" stroke-linecap="round" stroke-linejoin="round"/>
<circle cx="15" cy="16" r="3" stroke="#949494" stroke-width="1.5"/>
</svg>
