<svg width="19" height="20" viewBox="0 0 19 20" fill="none" xmlns="http://www.w3.org/2000/svg">
<path d="M12.6317 6.3158C14.3068 6.3158 15.9132 6.98121 17.0976 8.16565C18.2821 9.35009 18.9475 10.9565 18.9475 12.6316V20H14.737V12.6316C14.737 12.0732 14.5152 11.5378 14.1204 11.1429C13.7255 10.7481 13.1901 10.5263 12.6317 10.5263C12.0734 10.5263 11.5379 10.7481 11.1431 11.1429C10.7482 11.5378 10.5264 12.0732 10.5264 12.6316V20H6.31592V12.6316C6.31592 10.9565 6.98133 9.35009 8.16577 8.16565C9.35021 6.98121 10.9567 6.3158 12.6317 6.3158Z" fill="white"/>
<path d="M4.21053 7.36841H0V20H4.21053V7.36841Z" fill="white"/>
<path d="M2.10526 4.21053C3.26797 4.21053 4.21053 3.26797 4.21053 2.10526C4.21053 0.942558 3.26797 0 2.10526 0C0.942558 0 0 0.942558 0 2.10526C0 3.26797 0.942558 4.21053 2.10526 4.21053Z" fill="white"/>
</svg>
