<svg width="21" height="14" viewBox="0 0 21 14" fill="none" xmlns="http://www.w3.org/2000/svg">
<path d="M20.5616 2.15935C20.4396 1.74335 20.2071 1.36445 19.8866 1.05933C19.5661 0.754207 19.1684 0.533209 18.7321 0.417734C17.0942 1.99704e-05 10.51 2.00714e-05 10.51 2.00714e-05C10.51 2.00714e-05 3.93827 -0.0100002 2.28335 0.417734C1.84773 0.533716 1.45083 0.754946 1.13103 1.06004C0.811227 1.36513 0.579331 1.74377 0.457756 2.15935C0.146729 3.75895 -0.00645711 5.38284 0.000208478 7.00972C-0.00282636 8.62877 0.150335 10.2446 0.457756 11.8369C0.579724 12.2527 0.811689 12.6316 1.13138 12.9373C1.45107 13.2429 1.84776 13.465 2.28335 13.5823C3.9212 14 10.51 14 10.51 14C10.51 14 17.0778 14 18.7321 13.5823C19.1684 13.4655 19.5658 13.2437 19.8862 12.938C20.2067 12.6323 20.4392 12.2531 20.5616 11.8369C20.8629 10.2456 21.01 8.62734 20.9995 7.00972C21.01 5.38145 20.8662 3.76069 20.5616 2.15935ZM8.40674 10.0076V3.99867L13.8875 7.00972L8.40674 10.0076Z" fill="white"/>
</svg>
